
1 row created.


Execution Plan
----------------------------------------------------------                      
Plan hash value: 3604227961                                                     
                                                                                
--------------------------------------------------------------------------------
-----                                                                           
                                                                                
| Id  | Operation                | Name     | Rows  | Bytes | Cost (%CPU)| Time 
    |                                                                           
                                                                                
--------------------------------------------------------------------------------
-----                                                                           
                                                                                
|   0 | INSERT STATEMENT         |          |     1 |    13 |     9  (12)| 00:00
:01 |                                                                           
                                                                                
|   1 |  LOAD TABLE CONVENTIONAL | GROUPS   |       |       |            |      
    |                                                                           
                                                                                
|   2 |   VIEW                   |          |     1 |    13 |     9  (12)| 00:00
:01 |                                                                           
                                                                                
|*  3 |    COUNT STOPKEY         |          |       |       |            |      
    |                                                                           
                                                                                
|*  4 |     HASH JOIN RIGHT ANTI |          | 15000 |   571K|     9  (12)| 00:00
:01 |                                                                           
                                                                                
|   5 |      TABLE ACCESS FULL   | GROUPS   |   501 |  6513 |     6   (0)| 00:00
:01 |                                                                           
                                                                                
|   6 |      INDEX FAST FULL SCAN| USERS_PK | 15000 |   190K|     2   (0)| 00:00
:01 |                                                                           
                                                                                
--------------------------------------------------------------------------------
-----                                                                           
                                                                                
                                                                                
Predicate Information (identified by operation id):                             
---------------------------------------------------                             
                                                                                
   3 - filter(ROWNUM<=1)                                                        
   4 - access("ID"="CREATEDBY")                                                 
                                                                                
Note                                                                            
-----                                                                           
   - dynamic sampling used for this statement (level=2)                         


30 rows created.


Execution Plan
----------------------------------------------------------                      
Plan hash value: 1156666511                                                     
                                                                                
--------------------------------------------------------------------------------
--------------                                                                  
                                                                                
| Id  | Operation                      | Name        | Rows  | Bytes | Cost (%CP
U)| Time     |                                                                  
                                                                                
--------------------------------------------------------------------------------
--------------                                                                  
                                                                                
|   0 | INSERT STATEMENT               |             |     1 |    26 |   108   (
4)| 00:00:02 |                                                                  
                                                                                
|   1 |  LOAD TABLE CONVENTIONAL       | MEMBERSHIPS |       |       |          
  |          |                                                                  
                                                                                
|   2 |   MERGE JOIN CARTESIAN         |             |     1 |    26 |   108   (
4)| 00:00:02 |                                                                  
                                                                                
|   3 |    VIEW                        |             |     1 |    13 |   107   (
4)| 00:00:02 |                                                                  
                                                                                
|*  4 |     COUNT STOPKEY              |             |       |       |          
  |          |                                                                  
                                                                                
|   5 |      VIEW                      |             |     1 |    13 |   107   (
4)| 00:00:02 |                                                                  
                                                                                
|*  6 |       SORT GROUP BY STOPKEY    |             |     1 |    39 |   107   (
4)| 00:00:02 |                                                                  
                                                                                
|*  7 |        HASH JOIN RIGHT ANTI    |             | 15000 |   571K|   105   (
2)| 00:00:02 |                                                                  
                                                                                
|   8 |         TABLE ACCESS FULL      | MEMBERSHIPS | 20530 |   260K|    14   (
0)| 00:00:01 |                                                                  
                                                                                
|   9 |         TABLE ACCESS FULL      | USERS       | 15000 |   380K|    90   (
2)| 00:00:02 |                                                                  
                                                                                
|  10 |    BUFFER SORT                 |             |     1 |    13 |   108   (
4)| 00:00:02 |                                                                  
                                                                                
|  11 |     VIEW                       |             |     1 |    13 |     1   (
0)| 00:00:01 |                                                                  
                                                                                
|  12 |      SORT AGGREGATE            |             |     1 |    13 |          
  |          |                                                                  
                                                                                
|  13 |       INDEX FULL SCAN (MIN/MAX)| GROUPS_PK   |     1 |    13 |     1   (
0)| 00:00:01 |                                                                  
                                                                                
--------------------------------------------------------------------------------
--------------                                                                  
                                                                                
                                                                                
Predicate Information (identified by operation id):                             
---------------------------------------------------                             
                                                                                
   4 - filter(ROWNUM<=30)                                                       
   6 - filter(ROWNUM<=30)                                                       
   7 - access("ID"="USERID")                                                    
                                                                                
Note                                                                            
-----                                                                           
   - dynamic sampling used for this statement (level=2)                         


30002 rows updated.


Execution Plan
----------------------------------------------------------                      
Plan hash value: 3896441483                                                     
                                                                                
--------------------------------------------------------------------------------
----                                                                            
                                                                                
| Id  | Operation            | Name        | Rows  | Bytes | Cost (%CPU)| Time  
   |                                                                            
                                                                                
--------------------------------------------------------------------------------
----                                                                            
                                                                                
|   0 | UPDATE STATEMENT     |             |  1341 | 34866 |   384   (2)| 00:00:
05 |                                                                            
                                                                                
|   1 |  UPDATE              | TICKETS     |       |       |            |       
   |                                                                            
                                                                                
|*  2 |   TABLE ACCESS FULL  | TICKETS     |  1341 | 34866 |    62   (2)| 00:00:
01 |                                                                            
                                                                                
|   3 |    SORT AGGREGATE    |             |     1 |    26 |            |       
   |                                                                            
                                                                                
|*  4 |     TABLE ACCESS FULL| SOLDTICKETS |     1 |    26 |   322   (2)| 00:00:
04 |                                                                            
                                                                                
--------------------------------------------------------------------------------
----                                                                            
                                                                                
                                                                                
Predicate Information (identified by operation id):                             
---------------------------------------------------                             
                                                                                
   2 - filter("TICKETS"."COUNT"> (SELECT COUNT(*) FROM "SOLDTICKETS"            
              "SOLDTICKETS" WHERE "TICKETID"="ID"))                             
   4 - filter("TICKETID"="ID")                                                  
                                                                                
Note                                                                            
-----                                                                           
   - dynamic sampling used for this statement (level=2)                         


14 rows updated.


Execution Plan
----------------------------------------------------------                      
Plan hash value: 2390481512                                                     
                                                                                
--------------------------------------------------------------------------------
-----------                                                                     
                                                                                
| Id  | Operation              | Name     | Rows  | Bytes |TempSpc| Cost (%CPU)|
 Time     |                                                                     
                                                                                
--------------------------------------------------------------------------------
-----------                                                                     
                                                                                
|   0 | UPDATE STATEMENT       |          | 21577 |  1959K|       |   329   (2)|
 00:00:04 |                                                                     
                                                                                
|   1 |  UPDATE                | EVENTS   |       |       |       |            |
          |                                                                     
                                                                                
|*  2 |   HASH JOIN RIGHT SEMI |          | 21577 |  1959K|  1096K|   329   (2)|
 00:00:04 |                                                                     
                                                                                
|   3 |    VIEW                | VW_NSO_1 | 21577 |   842K|       |   105   (3)|
 00:00:02 |                                                                     
                                                                                
|*  4 |     FILTER             |          |       |       |       |            |
          |                                                                     
                                                                                
|   5 |      SORT GROUP BY     |          |     1 |   842K|       |   105   (3)|
 00:00:02 |                                                                     
                                                                                
|   6 |       TABLE ACCESS FULL| EVENTS   | 21577 |   842K|       |   103   (1)|
 00:00:02 |                                                                     
                                                                                
|   7 |    TABLE ACCESS FULL   | EVENTS   | 21577 |  1116K|       |   103   (1)|
 00:00:02 |                                                                     
                                                                                
--------------------------------------------------------------------------------
-----------                                                                     
                                                                                
                                                                                
Predicate Information (identified by operation id):                             
---------------------------------------------------                             
                                                                                
   2 - access("TITLE"="TITLE" AND "REGIONID"="REGIONID")                        
   4 - filter(COUNT(*)>1)                                                       
                                                                                
Note                                                                            
-----                                                                           
   - dynamic sampling used for this statement (level=2)                         


2070 rows created.


Execution Plan
----------------------------------------------------------                      
Plan hash value: 328791071                                                      
                                                                                
--------------------------------------------------------------------------------
----------                                                                      
                                                                                
| Id  | Operation                  | Name        | Rows  | Bytes | Cost (%CPU)| 
Time     |                                                                      
                                                                                
--------------------------------------------------------------------------------
----------                                                                      
                                                                                
|   0 | INSERT STATEMENT           |             |    10 |   260 |    52   (8)| 
00:00:01 |                                                                      
                                                                                
|   1 |  LOAD TABLE CONVENTIONAL   | MEMBERSHIPS |       |       |            | 
         |                                                                      
                                                                                
|   2 |   MERGE JOIN CARTESIAN     |             |    10 |   260 |    52   (8)| 
00:00:01 |                                                                      
                                                                                
|   3 |    VIEW                    |             |     1 |    13 |    23  (14)| 
00:00:01 |                                                                      
                                                                                
|   4 |     SORT GROUP BY          |             |     1 |    39 |    23  (14)| 
00:00:01 |                                                                      
                                                                                
|*  5 |      HASH JOIN             |             |  9338 |   355K|    21   (5)| 
00:00:01 |                                                                      
                                                                                
|*  6 |       TABLE ACCESS FULL    | GROUPS      |   207 |  5382 |     6   (0)| 
00:00:01 |                                                                      
                                                                                
|   7 |       TABLE ACCESS FULL    | MEMBERSHIPS | 22600 |   286K|    14   (0)| 
00:00:01 |                                                                      
                                                                                
|   8 |    BUFFER SORT             |             |    10 |   130 |    52   (8)| 
00:00:01 |                                                                      
                                                                                
|   9 |     VIEW                   |             |    10 |   130 |    29   (4)| 
00:00:01 |                                                                      
                                                                                
|* 10 |      COUNT STOPKEY         |             |       |       |            | 
         |                                                                      
                                                                                
|* 11 |       HASH JOIN ANTI       |             | 15000 |   380K|    29   (4)| 
00:00:01 |                                                                      
                                                                                
|  12 |        INDEX FAST FULL SCAN| USERS_PK    | 15000 |   190K|    14   (0)| 
00:00:01 |                                                                      
                                                                                
|  13 |        TABLE ACCESS FULL   | MEMBERSHIPS | 22600 |   286K|    14   (0)| 
00:00:01 |                                                                      
                                                                                
--------------------------------------------------------------------------------
----------                                                                      
                                                                                
                                                                                
Predicate Information (identified by operation id):                             
---------------------------------------------------                             
                                                                                
   5 - access("MEMBERSHIPS"."GROUPID"="GROUPS"."ID")                            
   6 - filter("GROUPS"."ISCOMPANY"=0)                                           
  10 - filter(ROWNUM<=10)                                                       
  11 - access("ID"="USERID")                                                    
                                                                                
Note                                                                            
-----                                                                           
   - dynamic sampling used for this statement (level=2)                         


16106 rows deleted.


Execution Plan
----------------------------------------------------------                      
Plan hash value: 4075581182                                                     
                                                                                
--------------------------------------------------------------------------------
-------------                                                                   
                                                                                
| Id  | Operation                     | Name        | Rows  | Bytes | Cost (%CPU
)| Time     |                                                                   
                                                                                
--------------------------------------------------------------------------------
-------------                                                                   
                                                                                
|   0 | DELETE STATEMENT              |             | 12618 |   640K|   349K  (1
)| 01:09:49 |                                                                   
                                                                                
|   1 |  DELETE                       | SOLDTICKETS |       |       |           
 |          |                                                                   
                                                                                
|*  2 |   FILTER                      |             |       |       |           
 |          |                                                                   
                                                                                
|   3 |    TABLE ACCESS FULL          | SOLDTICKETS |   252K|    12M|   323   (3
)| 00:00:04 |                                                                   
                                                                                
|   4 |    TABLE ACCESS BY INDEX ROWID| TICKETS     |     1 |    26 |     2   (0
)| 00:00:01 |                                                                   
                                                                                
|*  5 |     INDEX UNIQUE SCAN         | TICKETS_PK  |     1 |       |     1   (0
)| 00:00:01 |                                                                   
                                                                                
--------------------------------------------------------------------------------
-------------                                                                   
                                                                                
                                                                                
Predicate Information (identified by operation id):                             
---------------------------------------------------                             
                                                                                
   2 - filter("PRICE"< (SELECT "DEFAULTPRICE" FROM "TICKETS" "TICKETS" WHERE    
              "TICKETS"."ID"=:B1))                                              
   5 - access("TICKETS"."ID"=:B1)                                               
                                                                                
Note                                                                            
-----                                                                           
   - dynamic sampling used for this statement (level=2)                         

delete from participants
*
ERROR at line 1:
ORA-02292: integrity constraint (ZSBD_W1.SOLDTICKETS_FK2) violated - child
record found 


timing for: script_time
Elapsed: 00:00:06.88
